<?xml version="1.0" standalone="no"?>
<!DOCTYPE svg PUBLIC "-//W3C//DTD SVG 20010904//EN"
 "http://www.w3.org/TR/2001/REC-SVG-20010904/DTD/svg10.dtd">
<svg version="1.0" xmlns="http://www.w3.org/2000/svg"
 width="1142.000000pt" height="153.000000pt" viewBox="0 0 1142.000000 153.000000"
 preserveAspectRatio="xMidYMid meet">

<g transform="translate(0.000000,153.000000) scale(0.100000,-0.100000)"
fill="#000000" stroke="none">
<path d="M550 1520 c-241 -29 -427 -164 -508 -370 -84 -215 -27 -470 139 -626
67 -62 128 -99 220 -131 60 -21 88 -39 171 -113 164 -146 264 -185 448 -178
86 4 115 9 162 30 64 30 138 85 138 103 0 7 -34 53 -76 103 l-77 91 -46 -31
c-62 -43 -142 -51 -184 -18 l-29 23 59 31 c79 41 192 155 231 232 50 99 66
168 66 279 -1 169 -60 304 -182 417 -130 120 -335 181 -532 158z m164 -312
c60 -18 138 -99 156 -163 18 -64 18 -146 0 -210 -18 -64 -96 -145 -156 -163
-124 -37 -248 19 -305 135 -32 68 -32 198 0 266 27 54 95 119 143 134 46 15
113 15 162 1z"/>
<path d="M6070 1519 c-246 -29 -398 -161 -408 -356 -5 -90 16 -156 68 -215 61
-69 149 -105 415 -167 100 -23 142 -52 130 -90 -11 -36 -43 -46 -150 -45 -111
1 -191 19 -294 65 -35 16 -68 26 -72 22 -6 -7 -31 -62 -100 -221 l-19 -43 63
-29 c186 -88 489 -110 668 -50 75 26 155 75 193 121 104 122 112 307 18 411
-70 77 -155 115 -347 154 -66 13 -137 31 -158 41 -78 34 -49 104 49 119 67 10
192 -11 281 -46 42 -17 78 -28 81 -25 5 5 112 256 112 263 0 2 -24 13 -52 26
-73 32 -176 56 -282 67 -102 10 -94 10 -196 -2z"/>
<path d="M2823 1256 c-192 -49 -326 -190 -353 -373 -36 -237 122 -449 375
-504 132 -28 315 -10 417 42 52 26 108 70 108 84 0 6 -40 51 -90 100 l-89 89
-51 -28 c-101 -55 -227 -43 -286 27 l-27 32 304 5 304 5 3 69 c6 137 -42 262
-130 341 -58 52 -86 68 -167 97 -72 25 -244 33 -318 14z m238 -275 c67 -66 60
-71 -101 -71 -77 0 -140 2 -140 5 0 17 33 66 57 84 21 15 43 20 87 21 55 0 61
-2 97 -39z"/>
<path d="M4035 1254 c-27 -9 -69 -29 -92 -45 l-43 -28 0 40 0 39 -172 -2 -173
-3 -3 -437 -2 -438 185 0 185 0 0 246 c0 208 3 251 17 281 33 70 121 81 167
20 20 -27 21 -42 24 -288 l3 -259 180 0 179 0 0 239 c0 146 4 251 11 268 26
68 95 101 145 68 49 -32 54 -63 54 -330 l0 -245 180 0 180 0 0 293 c0 299 -5
345 -41 422 -66 140 -241 207 -416 160 -62 -17 -147 -69 -167 -103 -6 -11 -16
-6 -50 26 -22 23 -63 51 -91 63 -65 29 -189 35 -260 13z"/>
<path d="M7052 1250 c-96 -25 -166 -66 -231 -135 -183 -193 -146 -514 75 -660
164 -109 416 -119 595 -24 76 41 152 122 191 205 60 129 47 307 -33 427 -112
169 -364 248 -597 187z m244 -291 c41 -38 54 -73 54 -144 0 -111 -46 -165
-139 -165 -93 0 -149 76 -138 190 6 65 27 104 72 132 41 26 116 20 151 -13z"/>
<path d="M8315 1254 c-27 -9 -69 -29 -92 -45 l-43 -28 0 40 0 39 -172 -2 -173
-3 -3 -437 -2 -438 185 0 185 0 0 246 c0 208 3 251 17 281 33 70 121 81 167
20 20 -27 21 -42 24 -288 l3 -259 180 0 179 0 0 239 c0 146 4 251 11 268 26
68 95 101 145 68 49 -32 54 -63 54 -330 l0 -245 180 0 180 0 0 293 c0 232 -3
305 -15 352 -38 146 -142 230 -300 242 -97 8 -189 -16 -254 -65 -25 -19 -50
-42 -55 -50 -6 -11 -16 -6 -50 26 -22 23 -63 51 -91 63 -65 29 -189 35 -260
13z"/>
<path d="M9834 1255 c-119 -26 -233 -100 -293 -192 -80 -120 -93 -298 -33
-427 80 -171 249 -268 467 -269 107 -1 177 14 264 56 214 104 306 366 206 585
-30 65 -119 160 -184 196 -111 60 -288 81 -427 51z m214 -285 c87 -53 97 -219
16 -289 -29 -26 -43 -31 -88 -31 -60 0 -96 21 -122 73 -23 44 -22 146 3 193
35 69 125 94 191 54z"/>
<path d="M10844 1255 c-132 -29 -245 -113 -272 -203 -17 -58 -14 -141 7 -188
24 -53 89 -107 154 -128 28 -10 109 -26 179 -36 70 -10 132 -21 138 -25 19
-12 10 -42 -15 -53 -59 -27 -237 -5 -339 41 l-53 25 -47 -114 c-25 -63 -46
-118 -46 -122 0 -11 138 -58 215 -73 80 -16 265 -16 340 0 140 30 248 111 275
206 7 24 11 74 8 109 -9 144 -102 207 -349 240 -102 13 -149 27 -149 45 0 4 9
16 20 26 29 26 211 17 293 -15 31 -13 59 -21 62 -19 11 12 94 222 90 229 -8
13 -124 48 -195 60 -88 14 -242 11 -316 -5z"/>
<path d="M1392 953 c3 -291 5 -311 26 -364 27 -69 70 -129 111 -159 119 -84
323 -84 440 1 l41 29 0 -40 0 -40 170 0 170 0 0 440 0 440 -180 0 -180 0 0
-227 c0 -249 -6 -291 -50 -335 -37 -37 -105 -40 -145 -5 -38 33 -44 78 -45
335 l0 232 -181 0 -181 0 4 -307z"/>
</g>
</svg>
